<svg xmlns="http://www.w3.org/2000/svg" width="40" height="46" viewBox="0 0 40 46">
  <g fill="none" fill-rule="evenodd" transform="translate(-.516 -3.188)">
    <path fill="#FFF" d="M39.4079463,24.6762269 C39.390702,24.677064 39.3732903,24.6779011 39.356046,24.6785708 C39.344494,24.4416712 39.332942,24.204939 39.3212226,23.9680395 C39.3501863,23.9673698 39.3789826,23.9667001 39.4079463,23.9660304 L39.4079463,24.6762269 Z M38.2807061,22.7771796 C38.1065891,22.9921471 38.203358,23.1516986 38.2346655,23.3618109 C38.2832174,23.6854342 38.2473895,24.0216139 38.2473895,24.3524362 C37.9760013,22.770985 37.9760013,22.770985 38.2328239,22.1230689 C38.3923754,22.3586291 38.4174884,22.6082526 38.2807061,22.7771796 Z M38.2616202,29.4994354 C38.2458827,29.4619332 38.2070412,29.4098655 38.2195977,29.3897751 C38.2433714,29.3514359 38.296611,29.3313455 38.337629,29.3035537 C38.346,29.3335219 38.3545384,29.3633227 38.3667601,29.4063497 C38.3346154,29.4348112 38.2981178,29.4671233 38.2616202,29.4994354 Z M37.2808727,16.6758854 C37.12919,16.0890776 36.9684666,15.5047811 36.8154445,14.9183081 C36.7859786,14.8052995 36.7759334,14.6872682 36.7488113,14.5218571 C37.5443921,15.2292074 37.7380972,16.1064893 37.7884907,17.1044811 C37.525641,17.0036941 37.3436552,16.9186446 37.2808727,16.6758854 Z M37.4489625,26.7135633 C37.3393023,27.3279954 37.2030223,27.938242 37.0659051,28.5474841 C36.988557,28.8908629 36.8872678,29.2288843 36.7968609,29.5692496 C36.7754311,29.5628876 36.7540013,29.5566931 36.7325715,29.5503311 C36.9078605,28.3003719 37.0824797,27.0504127 37.2627913,25.8012906 C37.2683162,25.7629514 37.3334426,25.7331506 37.4109582,25.663169 C37.553935,26.0330002 37.5085641,26.3797274 37.4489625,26.7135633 Z M34.7156604,17.6815785 C34.7046107,17.86189 34.6143712,17.9755683 34.4692179,17.9651883 C34.3548699,17.9569847 34.2139021,17.8545235 34.1496127,17.7528995 C34.0906808,17.6598138 34.098717,17.5096379 34.1114409,17.3880909 C34.161667,16.9122827 34.2294722,16.4383161 34.2815398,15.9626753 C34.2976122,15.8160152 34.2840511,15.6661741 34.2840511,15.5178398 C34.3300917,15.4818445 34.3762997,15.4458492 34.4223402,15.4098538 C34.4389148,15.48084 34.4499646,15.5538352 34.473236,15.6226449 C34.6999229,16.2919908 34.75852,16.9792507 34.7156604,17.6815785 Z M34.2922547,34.3860961 C34.0568619,34.2153275 34.0411244,34.0231291 34.1430833,33.8183742 C34.1588208,33.7867318 34.274843,33.7726685 34.3227252,33.795605 C34.4591727,33.8608989 34.4528107,33.9193286 34.2922547,34.3860961 Z M33.485122,36.1853609 C33.2907471,36.4172379 33.0568611,36.6161331 32.8405542,36.8299287 C33.1136165,36.0112439 33.118974,35.1018174 33.7233609,34.3961413 C33.9309619,34.6548055 34.1077577,34.8747956 34.3038067,35.1188943 C34.0319163,35.4760015 33.7725824,35.8424844 33.485122,36.1853609 Z M32.4427638,21.1257468 C32.6321161,21.3331804 32.8561243,21.9566532 32.8688482,22.3715205 C32.4640262,21.9417528 32.3741215,21.6574733 32.4427638,21.1257468 Z M32.525302,27.1789914 C32.4844514,27.0124083 32.4529764,26.8841645 32.3968907,26.6556359 C32.6287677,26.844151 32.7715771,26.9474493 32.525302,27.1789914 Z M32.2390134,23.0390248 C32.4911483,23.1771464 32.6558897,23.4468604 32.58708,23.7150675 C32.5219536,23.9693788 32.3925378,24.2071155 32.2545835,24.5414536 C31.8546167,23.3631503 31.9112047,23.4306206 32.2390134,23.0390248 Z M31.7936757,18.597367 C31.8290014,18.9963293 31.8586347,19.3326765 31.8884355,19.6690236 C31.4692154,19.048397 31.4476182,18.8141761 31.7936757,18.597367 Z M31.7958522,33.0269789 C31.9564081,33.5342621 31.6649296,33.9680478 31.5649797,34.4329737 C31.4315458,33.9302109 31.5661517,33.4709773 31.7958522,33.0269789 Z M31.6677757,37.7771922 C31.6475179,37.8295947 31.4841158,37.8481783 31.3915324,37.8383005 C31.3612293,37.8349521 31.3143517,37.6861156 31.3292521,37.6151294 C31.3726139,37.4075284 31.4236771,37.1969138 31.510903,37.0052176 C31.5609616,36.8952226 31.6866942,36.8198835 31.8187887,36.6889609 C31.9525575,37.1368099 31.7916667,37.4584241 31.6677757,37.7771922 Z M31.2174154,9.72443135 C31.3088268,9.71103773 31.4419259,9.64909226 31.5011926,9.69128215 C31.6406536,9.79022748 31.6319478,9.93052561 31.4251839,10.0902445 C31.3664194,9.98694621 31.3056458,9.87996471 31.2174154,9.72443135 Z M33.3518555,31.0398686 C33.2976113,31.0405383 33.2433672,31.0413754 33.1891231,31.0422125 L33.1891231,30.2613647 C33.215408,30.2588534 33.2418604,30.2563421 33.2681454,30.2538308 C33.2959371,30.5158434 33.3238963,30.777856 33.3518555,31.0398686 Z M33.3255705,22.2365798 C33.3652491,22.4564025 33.3982309,22.6393928 33.4335565,22.8357767 C33.1271776,22.758596 33.1271776,22.758596 33.3255705,22.2365798 Z M33.6016464,26.7380066 C33.5761985,26.3119222 33.5579497,26.0057107 33.5328367,25.5864905 C33.8320166,26.1041538 33.8440709,26.2638726 33.6016464,26.7380066 Z M33.9691338,21.8505088 L33.9691338,22.3047198 C33.9555727,22.3058917 33.9418443,22.3070637 33.9282832,22.3082356 C33.9184054,22.1570552 33.9086951,22.0058747 33.8988173,21.8545269 C33.9222561,21.8531875 33.9456949,21.8518482 33.9691338,21.8505088 Z M34.1866126,20.3830708 C34.3548699,20.613441 34.3550373,20.7781824 34.1881194,21.4292796 C33.8725323,21.1249097 33.8725323,21.1249097 34.1866126,20.3830708 Z M34.1439204,12.0637938 C34.1229929,11.8031205 34.1101016,11.6425645 34.0938618,11.4396513 C34.4933264,11.7378266 34.4933264,11.7378266 34.1439204,12.0637938 Z M30.6063317,33.3264936 C30.58892,33.3248194 30.5716757,33.3233127 30.554264,33.3216385 C30.5718431,33.1396527 30.5894222,32.9576669 30.6070014,32.7756812 C30.6368021,32.7796993 30.6667704,32.7835499 30.6965712,32.7874006 C30.6664355,32.9670425 30.6364673,33.1468518 30.6063317,33.3264936 Z M30.1819215,27.7108854 C29.7918324,27.5193567 29.6681089,27.2106338 29.7498099,26.7904091 C29.8070676,26.4955822 29.83352,26.1945607 29.8767145,25.8742858 C30.4253504,26.4160576 30.5564405,27.2606925 30.1819215,27.7108854 Z M29.8102486,33.2841363 C29.8447372,33.1592409 29.8793932,33.0343454 29.9140492,32.9092825 C29.9465287,32.9208345 29.9790082,32.9323865 30.0114877,32.9439385 C29.9584155,33.0604629 29.9051759,33.1769874 29.8521037,33.2935119 C29.8382078,33.2903309 29.8241445,33.2873173 29.8102486,33.2841363 Z M29.5003538,39.7435424 C29.5252995,39.4189146 29.5252995,39.4189146 30.0657319,39.4353218 C29.8852529,39.5337649 29.7046065,39.6322079 29.5003538,39.7435424 Z M29.6948961,34.3162818 C29.6707876,34.527901 29.6466791,34.7395201 29.6152041,35.0142566 C29.4420916,34.7050315 29.4420916,34.7050315 29.6948961,34.3162818 Z M28.2758425,38.506642 C28.1177979,38.0758698 28.0170109,37.6501202 28.0779519,37.1150453 C28.323055,37.1821808 28.5283122,37.2382665 28.7821212,37.3075785 C28.5986287,37.7422013 28.4372356,38.1244216 28.2758425,38.506642 Z M28.7395965,36.7231146 C28.1204766,36.3755503 28.0950287,36.0899314 28.6421579,35.5903495 C28.6761442,35.9854612 28.7062799,36.335202 28.7395965,36.7231146 Z M27.5031983,10.373352 C27.371606,10.0753441 27.3855019,9.71287935 27.3212126,9.30303471 C27.430538,9.40616555 27.5266371,9.45605677 27.5566054,9.53206554 C27.7196726,9.94643053 27.861645,10.3691665 28.0208616,10.7852057 C28.1042368,11.002852 28.1968202,11.2184892 28.3048062,11.4247509 C28.675642,12.1326035 28.6818365,12.8998902 28.7411033,13.6591408 C28.6977414,13.68191 28.6543796,13.7045117 28.6110178,13.7272808 C28.5187692,13.6251545 28.3868421,13.5377612 28.3419735,13.4178883 C28.22344,13.1016316 28.1337028,12.7736554 28.0489882,12.4460141 C27.8701834,11.7550709 27.7981927,11.0403541 27.5031983,10.373352 Z M27.6230712,22.8424735 C27.6399806,22.8396273 27.6570575,22.8366138 27.6739669,22.8337676 C27.7027632,22.9474459 27.7315595,23.0611242 27.7603557,23.1746351 C27.742944,23.1841781 27.7253649,23.1938885 27.7079532,23.2034314 C27.6796592,23.1516986 27.6383064,23.1029793 27.6264196,23.0477306 C27.6120214,22.9821019 27.6230712,22.9111158 27.6230712,22.8424735 Z M27.6532068,31.6260067 C27.8085728,31.9521412 27.8013737,32.0551047 27.6016414,32.5186912 C27.6188857,32.2210181 27.6359625,31.9235124 27.6532068,31.6260067 Z M27.790324,40.1595816 C27.6562204,40.4311371 27.3898548,40.4041825 27.0782859,40.4237706 C27.1186341,40.2225316 27.1494394,40.0690072 27.1794077,39.9198358 C27.3729454,39.8024743 27.557275,39.7450492 27.7233559,39.9188313 C27.7759258,39.9739126 27.8187854,40.1021564 27.790324,40.1595816 Z M25.8845799,40.6248423 C26.0869909,40.4035128 26.0869909,40.4035128 26.5398625,40.4363272 C26.3665826,40.8473437 26.2565875,40.8789862 25.8845799,40.6248423 Z M25.8668333,26.1068325 L25.7695622,26.1224026 C25.741603,25.9670366 25.7134764,25.8116707 25.6855172,25.6563047 C25.7459559,25.6521192 25.8063946,25.6479337 25.8668333,25.6435808 L25.8668333,26.1068325 Z M25.116456,9.94626311 C25.5070473,10.2770854 25.7946752,11.1374578 25.7943407,11.8066363 C25.5684905,11.1865119 25.3424733,10.5663875 25.116456,9.94626311 Z M24.9389906,39.0942869 C24.9748185,38.9998619 25.0108138,38.9054369 25.0496553,38.8031431 C25.1988267,38.9509752 25.1608223,39.0531015 24.9389906,39.0942869 Z M24.773412,40.4453678 C24.4872909,40.1014868 24.5251278,39.9581751 24.9912257,39.7698273 C24.9039998,40.0405458 24.8432262,40.2288935 24.773412,40.4453678 Z M24.5222817,34.3465849 C24.6021411,34.4038426 24.6838422,34.4403402 24.730385,34.5031228 C24.7647062,34.5491633 24.7533216,34.6293576 24.7732446,34.7745109 C24.4857841,34.6144572 24.4857841,34.6144572 24.5222817,34.3465849 Z M23.9497046,41.9961811 C23.8747004,41.5746171 24.1810793,41.2908398 24.2637849,40.9104611 C24.5075487,41.2911747 24.4029111,41.6325445 23.9497046,41.9961811 Z M23.899646,25.9050911 C24.0260482,26.4890528 24.1522831,27.072847 24.2977712,27.7445368 C23.9855326,27.4041716 23.8536054,26.8692641 23.899646,25.9050911 Z M24.8534389,33.7005104 C24.6840096,33.3763849 24.4037482,33.0957886 24.6429917,32.6728852 C24.7375841,32.5059673 24.6974032,32.2627057 24.7184982,32.0541001 C25.0652254,32.5866638 24.8728596,33.1470192 24.8534389,33.7005104 Z M24.5688245,14.8620549 C24.6778151,15.2750806 24.7493035,15.697984 24.8360272,16.1168693 C24.8691764,16.2770904 24.9086875,16.4414971 24.6361274,16.5181755 C24.2008349,15.6758845 24.2597668,14.6937976 23.884913,13.8315836 C24.4310377,13.9938138 24.4621779,14.4568981 24.5688245,14.8620549 Z M23.1887798,6.69613482 C23.2311371,6.67252857 23.273327,6.6487549 23.3156843,6.62514866 C23.6242398,7.04821949 24.0508264,7.40532677 23.9681209,8.04788549 C23.7082847,7.59735774 23.448616,7.14682999 23.1887798,6.69613482 Z M23.6317737,30.2831293 C23.4412495,29.9071035 23.5113986,29.4997702 23.5820499,29.0897581 C23.6480134,29.4815214 23.713977,29.8734521 23.7799406,30.2653828 C23.7305516,30.2712425 23.6811626,30.2772696 23.6317737,30.2831293 Z M22.6389719,39.332191 C22.6235693,39.2149968 22.5833884,39.0949565 22.5974517,38.9816131 C22.6388045,38.648112 22.6999129,38.3171223 22.7566683,37.9856303 C22.8120844,37.66117 22.9758213,37.4333111 23.4082677,37.3273341 C23.402408,38.1409962 23.0858164,38.75208 22.6389719,39.332191 Z M22.9073465,44.677583 C22.8842425,44.7264697 22.762528,44.728981 22.6858496,44.7527547 C22.6677682,44.6752391 22.6088363,44.5699318 22.6391393,44.5252306 C22.7320575,44.3879461 22.8592969,44.2741003 22.9731426,44.1510465 C23.0017715,44.1664491 23.0302329,44.1816844 23.0588618,44.197087 C23.011147,44.3584801 22.9781652,44.5269048 22.9073465,44.677583 Z M22.4524658,9.76092895 C22.5475605,9.83007349 22.6428226,9.89921803 22.7380847,9.96836257 C22.6957274,10.006367 22.6535375,10.0442039 22.6111802,10.0820409 C22.5405288,9.9901272 22.4698775,9.89821351 22.3992262,9.80629982 C22.4169727,9.791232 22.4347193,9.77599677 22.4524658,9.76092895 Z M21.0165028,46.2674052 C20.9823491,46.2486541 20.9481953,46.2297357 20.9138742,46.2108172 C20.9590777,45.9943429 20.9877065,45.7723437 21.0570185,45.5639055 C21.0856473,45.4776841 21.1901175,45.3839288 21.2791851,45.3566393 C21.5954418,45.2598705 21.9195673,45.1888843 22.2418512,45.11388 C22.2657923,45.1081878 22.3001134,45.1473641 22.3908552,45.2037847 C22.0754355,45.7673211 21.4655237,45.9146508 21.0165028,46.2674052 Z M20.7586757,40.4523995 C20.5845587,40.1950746 20.5845587,40.1950746 20.8089017,39.8830034 C20.7931642,40.0613059 20.7774267,40.2397758 20.7586757,40.4523995 Z M20.6111785,7.2049248 C20.4651881,7.21681163 20.3118312,7.22920073 20.1243205,7.24426854 C20.0401082,6.98259078 19.9622578,6.74066859 19.8716835,6.45906782 C20.5562647,6.37217674 20.6975673,6.53356981 20.6111785,7.2049248 Z M20.5182603,34.4912359 C20.4504551,34.3733721 20.3942019,34.2754313 20.3379487,34.1774905 C20.3556953,34.1627575 20.3734418,34.148192 20.3911883,34.133459 C20.4335457,34.1840199 20.4919753,34.2287211 20.5135725,34.2871507 C20.5346675,34.344241 20.5182603,34.4152272 20.5182603,34.4912359 Z M20.1996596,38.7073788 C19.9065069,38.2314032 19.6162002,37.789079 19.6054854,37.2056196 C20.3640663,37.6620071 20.4077629,37.772337 20.1996596,38.7073788 Z M19.7827833,46.9164933 C19.8522627,46.7055439 19.9053349,46.5441508 19.9878731,46.2938576 C20.3381161,46.731494 20.3319216,46.7465618 19.7827833,46.9164933 Z M19.653535,39.6077646 C19.6307658,39.5575385 19.6486798,39.4887288 19.6486798,39.4281227 C19.6781457,39.4210911 19.7074443,39.4140594 19.7369102,39.4070278 C19.7757517,39.5036292 19.8147606,39.6003981 19.8536021,39.697167 C19.83167,39.713909 19.8095706,39.730651 19.7876385,39.747393 C19.7412631,39.7015199 19.678648,39.6631807 19.653535,39.6077646 Z M19.1174555,25.2305552 C19.4919745,25.5724272 19.9677827,27.0658154 19.9719682,27.9327171 C19.8659912,27.9009073 19.76872,27.8716088 19.7317202,27.860559 C19.6476752,26.9265218 19.1926272,26.1219003 19.1174555,25.2305552 Z M19.035587,27.0566073 C19.0161663,26.9705533 18.9967455,26.8844993 18.9773248,26.7984453 C19.0069582,26.7882327 19.0364241,26.77802 19.0660575,26.7678074 C19.0998764,26.8511827 19.1338627,26.9343905 19.1676815,27.0175983 C19.12365,27.0306571 19.0796185,27.0435485 19.035587,27.0566073 Z M18.5495662,23.677398 C18.9696234,23.5990453 19.0499851,23.7018413 19.0365915,24.4553997 C18.8740265,24.1957309 18.7114615,23.9360622 18.5495662,23.677398 Z M18.6019687,18.0132379 C18.7320542,18.1285904 18.8243027,18.2538207 18.669439,18.5354215 C18.582548,18.3201191 18.526797,18.1819974 18.4710461,18.0438758 C18.5145754,18.0336631 18.558272,18.0234505 18.6019687,18.0132379 Z M18.307644,9.36397566 C18.3438068,9.35275851 18.3798021,9.34154135 18.4159649,9.3303242 C18.4424172,9.42441435 18.4690371,9.5185045 18.4954894,9.61242723 C18.463847,9.62230502 18.4322046,9.63218282 18.4005622,9.64189319 C18.3695895,9.54930982 18.3386167,9.45655903 18.307644,9.36397566 Z M17.8090666,6.09677051 L18.3469877,6.09677051 C18.0985362,6.39578299 17.967781,6.39193232 17.8090666,6.09677051 Z M17.5170858,39.8771437 L17.007961,39.8771437 C16.9587395,39.6795879 16.9128663,39.4945885 16.8351834,39.182015 C17.1490962,39.4227653 17.3650683,39.5881764 17.5808729,39.753755 C17.5596105,39.794773 17.5383482,39.8359583 17.5170858,39.8771437 Z M17.2684668,37.5716002 C16.9054998,37.1188959 16.7834505,36.5632283 16.6391343,36.0150946 C17.1452456,36.4127176 17.1556256,37.0119144 17.2684668,37.5716002 Z M15.6552058,6.57274613 C15.8723498,6.17696479 15.9570644,6.15118208 16.5304786,6.29700507 C16.3042939,6.72710756 15.9597431,6.48886861 15.6552058,6.57274613 Z M16.3722665,28.815189 C15.9292727,28.4118738 15.9125306,27.8856721 15.9091822,27.2945114 C16.3156785,27.4450221 16.2130499,27.7624508 16.2821944,27.9956671 C16.3573661,28.2491413 16.4126148,28.5084752 16.4767367,28.7652978 C16.4419133,28.7818724 16.4070899,28.798447 16.3722665,28.815189 Z M15.9599106,37.2511579 C15.6193779,36.9899824 15.5065367,36.6429203 15.3173518,36.2483109 C15.4573151,36.2268811 15.523781,36.2168359 15.5902468,36.2066233 C15.6347805,36.5608844 16.120634,36.7398566 15.9599106,37.2511579 Z M15.1941306,19.2863011 C15.225773,19.0078813 14.8241319,18.716905 15.1919541,18.4197341 C15.3533472,18.7540723 15.3533472,18.7540723 15.1941306,19.2863011 Z M14.9542174,26.4585823 C14.9019823,26.2709043 14.8497472,26.0832262 14.7976796,25.8953808 C14.8341772,25.8839962 14.8708422,25.872779 14.9075072,25.8613945 C14.9672762,26.0458915 15.0270452,26.2302212 15.0868142,26.4147182 C15.0426153,26.4294512 14.9984164,26.4440168 14.9542174,26.4585823 Z M14.5346624,37.5871702 C14.4166312,37.4252749 14.3001067,37.2632122 14.5832143,37.0144257 C14.6155264,37.234081 14.6399697,37.4003293 14.6644131,37.5665776 C14.6212187,37.5734418 14.5780243,37.580306 14.5346624,37.5871702 Z M15.1239815,7.07366736 C15.2045106,7.63770601 14.8078922,7.69077821 14.3851562,7.83509442 C14.5843862,7.47296453 14.6116757,7.0673054 15.1239815,7.07366736 Z M14.3063013,30.03518 C14.2706408,29.980601 14.222926,29.9300401 14.203003,29.8701037 C14.1825778,29.8088279 14.189442,29.7385114 14.1844194,29.672213 C14.2070211,29.6713759 14.2294554,29.6705388 14.2520571,29.6698691 C14.292238,29.7785248 14.3325862,29.8871805 14.3727671,29.9958362 L14.3063013,30.03518 Z M14.1492611,39.4686384 C14.0831302,39.5401268 13.9239135,39.5782986 13.8224569,39.5551947 C13.3622188,39.450557 13.2202465,39.160083 13.3371058,38.6208225 C13.7648644,38.5818136 14.0662207,38.7532519 14.1951343,39.1416668 C14.2274464,39.2391053 14.2122111,39.4006658 14.1492611,39.4686384 Z M13.0203467,25.8880143 C12.9105191,25.7636211 12.8206144,25.6618296 12.7307098,25.5600381 C12.7703884,25.7709876 12.810067,25.981937 12.8502478,26.1952303 C12.4961541,26.087914 12.4482719,25.9810999 12.4549687,25.2267045 C12.5805339,25.3775501 12.6632395,25.4769977 12.745945,25.5764453 C12.647502,25.2652111 12.586561,24.936063 12.4435842,24.647598 C12.2227569,24.2020929 12.3736025,23.7490538 12.2828608,23.30606 C12.3155077,23.2839605 12.3483221,23.2616936 12.3808016,23.2395942 C12.5339911,23.3418879 12.7333885,23.412037 12.8311619,23.5528374 C13.0734189,23.9017411 13.3349293,24.2493054 13.3361012,24.7154032 C13.3366035,24.9670358 13.3813047,25.199415 13.1638259,25.4090251 C13.0695683,25.5001017 13.0739212,25.693472 13.0203467,25.8880143 Z M12.3968739,37.8428209 C12.1403862,37.8249069 11.8879165,37.8160336 11.8304914,37.4694738 C12.437557,37.3295106 12.5210997,37.3837547 12.3968739,37.8428209 Z M11.477737,36.3050664 C11.5023478,36.2735914 11.527126,36.2422838 11.5519042,36.2108088 C11.7352293,36.3594779 11.9187218,36.5081471 12.1894403,36.7276349 C11.7471161,36.7139065 11.5810353,36.5478257 11.477737,36.3050664 Z M11.2400004,35.1070074 C11.0178338,34.7082125 10.7956672,34.3092502 10.5735006,33.9102879 C10.5986136,33.8953875 10.6235592,33.8806545 10.6486722,33.8657541 C10.900807,34.2406079 11.1529419,34.6152943 11.4052441,34.9901481 C11.3501629,35.029157 11.2950816,35.0681659 11.2400004,35.1070074 Z M11.1499283,33.3408918 C10.8328344,33.3566293 10.812744,33.0407074 10.6751246,32.8732872 C10.5626182,32.7366723 10.5457088,32.5212025 10.4542974,32.2434524 C10.9458431,32.5367726 11.0283812,32.951305 11.1499283,33.3408918 Z M9.2674556,36.8023044 C9.87786964,36.8366255 9.88774743,36.8436571 10.0041045,37.3583068 C9.32889882,37.3388861 9.25657329,37.2804564 9.2674556,36.8023044 Z M9.33241464,14.0227775 C9.3818036,13.9090992 9.49096157,13.789896 9.47756795,13.6855932 C9.40273112,13.1019664 9.82027709,12.6614839 9.87134025,12.0006763 C10.1279954,13.0355006 9.79516406,14.5452959 9.25222036,14.9497831 C9.18089936,14.6176214 9.20417077,14.3172696 9.33241464,14.0227775 Z M9.13954657,17.2439421 C9.09015761,17.2333946 9.04093608,17.2226797 8.99171454,17.2119648 C9.02134791,17.0905852 9.05081387,16.9690381 9.08044724,16.8474911 C9.11979099,16.8558621 9.15913474,16.8640657 9.1986459,16.8724367 C9.17889032,16.9963276 9.15913474,17.1200511 9.13954657,17.2439421 Z M8.35802909,35.9896467 C8.29474426,35.8912036 8.231292,35.792928 8.16800717,35.6944849 C8.19512924,35.6780777 8.22225131,35.6616705 8.2495408,35.6454308 C8.30596141,35.7478919 8.36238202,35.8503531 8.41880262,35.9528143 C8.39854478,35.9650359 8.37828694,35.977425 8.35802909,35.9896467 Z M7.85794496,25.6064135 C7.55524925,24.9548141 7.25020965,24.3040518 6.96777177,23.6437465 C6.89042364,23.4629327 6.88774492,23.2501417 6.84069985,22.9980068 C7.1777167,23.0512465 7.29491084,23.2322277 7.39201455,23.4185664 C7.68952024,23.9887996 8.00560958,24.5528382 8.14808416,25.1888675 C8.1973057,25.4090251 8.25908376,25.6365491 8.07826994,25.9243445 C7.98099881,25.7860554 7.90314842,25.7038521 7.85794496,25.6064135 Z M7.07341392,26.5958669 C7.43504155,26.9375715 7.45881521,27.3094118 7.57684645,27.6768991 C7.25489741,27.4642754 7.14875301,27.2464618 7.07341392,26.5958669 Z M6.33776957,31.830929 C6.89075848,32.3521081 7.13921006,33.0435535 7.40105525,33.7276324 C6.85995317,33.1997565 6.5791895,32.5262251 6.33776957,31.830929 Z M6.02720511,34.0132513 C6.05750816,33.989645 6.0876438,33.9660388 6.11794685,33.9422651 C6.40138925,34.1178889 6.46283246,34.4153946 6.47220799,34.7442079 C6.3238737,34.5006115 6.1755394,34.2568477 6.02720511,34.0132513 Z M5.31617153,32.4597593 C5.3216964,32.3035562 5.16850692,32.1453441 5.10254336,31.981942 C5.069729,31.9005758 5.07090094,31.8054811 5.05667022,31.716581 C5.09132621,31.7043593 5.12581477,31.6923051 5.16047075,31.6800834 C5.40674586,32.1202311 5.69136019,32.5409581 5.8505768,33.1284355 C5.5314739,32.938581 5.30344759,32.8210521 5.31617153,32.4597593 Z M4.72199725,34.2910014 C4.39636497,33.8560437 4.04729386,33.4835338 3.80838523,33.0502503 C3.34412903,32.2084616 2.93143824,31.3373743 2.51757551,30.4689657 C2.31215093,30.0376913 2.13435068,29.5910142 1.97814764,29.1396493 C1.91034246,28.9439351 1.91536507,28.718755 1.9115144,28.5064662 C1.90716148,28.2672227 2.07240521,28.2655485 2.26092035,28.3035529 C2.36589282,28.61914 2.46969334,28.9404193 2.58052551,29.2591874 C2.62757058,29.3942955 2.6583759,29.5531772 2.75012217,29.6514529 C3.16934234,30.1011435 3.17386269,30.6842681 3.28385776,31.2313973 C3.39000216,31.759608 3.56612821,32.1841856 4.2009856,32.2590225 C4.53381695,32.2983662 4.68817837,32.6000574 4.79767118,32.8955541 C4.87167091,33.0954538 4.92574763,33.3028874 5.00292834,33.5014477 C5.15561556,33.8943829 5.15963365,33.8928762 4.72199725,34.2910014 Z M1.5691401,24.9640222 C1.6702619,24.3993139 1.72232958,23.8260671 1.79817093,23.2568385 C1.82160975,23.0807124 1.85007119,22.9050886 1.8808765,22.7299671 C1.95671785,22.2993624 2.03507051,21.8692599 2.12162675,21.3877594 C2.23882089,21.3455695 2.3317391,21.3964652 2.32805585,21.5921794 C2.3201871,22.0227842 2.32320067,22.4540586 2.29507407,22.883324 C2.26125519,23.4008198 2.19596132,23.9159718 2.15293432,24.4329653 C2.14255427,24.5566889 2.14489816,24.6889508 2.17721025,24.8076517 C2.27197009,25.1537093 2.22157661,25.4805135 2.09149111,25.8043042 C1.51506337,25.6109339 1.47186896,25.5081379 1.5691401,24.9640222 Z M3.11945112,28.2971909 L3.11945112,28.5553529 C3.09668198,28.5560225 3.07391283,28.5566922 3.05114368,28.5573619 L3.02653291,28.298028 C3.05750565,28.2976932 3.08847839,28.2973583 3.11945112,28.2971909 Z M3.30930563,18.7230995 C3.47421452,20.8849965 3.09383583,22.9983417 2.70743002,25.1028136 C2.72283268,22.9531382 2.62037152,20.8001145 3.30930563,18.7230995 Z M4.06771912,18.9258454 C4.10856965,18.9298635 4.14942018,18.934049 4.1902707,18.9380671 C4.13267816,19.6115985 4.07525303,20.28513 4.01766048,20.9586614 C3.9681041,20.9536388 3.91871514,20.9487836 3.86915877,20.9439284 C3.93545716,20.2712341 4.00158814,19.5985397 4.06771912,18.9258454 Z M4.69219646,30.7549194 C4.77004685,30.7860596 4.84772982,30.8171997 4.92558021,30.8483399 C4.90163912,30.891032 4.87769803,30.9337242 4.85375695,30.9764163 C4.7854495,30.9300409 4.71697464,30.8836655 4.6486672,30.8372901 C4.66323276,30.8098332 4.6776309,30.7823763 4.69219646,30.7549194 Z M5.31951993,27.7611114 C5.35685464,27.9879658 5.38213509,28.1421598 5.41561913,28.3452405 C5.07207288,28.107169 5.07207288,28.107169 5.31951993,27.7611114 Z M5.62573147,18.0343328 C5.60664557,18.2836215 5.58755967,18.5329102 5.56847377,18.7821989 C5.52310289,18.7788504 5.47789944,18.775502 5.43252857,18.7721536 C5.45362351,18.5200188 5.47455104,18.267884 5.49547856,18.0157492 C5.53884039,18.0219437 5.58236964,18.0281383 5.62573147,18.0343328 Z M5.4087549,15.9583224 C5.44140184,15.9732228 5.47404878,15.9882906 5.50669571,16.0033584 C5.45630223,16.122729 5.40607618,16.2419322 5.3556827,16.3613028 C5.30997698,16.3393708 5.26427127,16.3174387 5.21856555,16.2955067 C5.28185039,16.1830003 5.34530264,16.0706613 5.4087549,15.9583224 Z M5.87418305,29.4254356 C6.06035431,29.775009 6.24635815,30.1245824 6.4325294,30.4741557 C6.39954763,30.4915674 6.36656585,30.5089791 6.33341665,30.5263908 C6.12631786,30.1875324 5.73924237,29.9420944 5.87418305,29.4254356 Z M6.62908072,20.6859339 C6.6679222,20.7244406 6.7168089,20.7569201 6.74326129,20.8024584 C6.79164573,20.886001 6.82697139,20.9774125 6.8676545,21.0654755 C6.82563203,21.0853985 6.78344214,21.1051541 6.74141967,21.1250771 C6.68248776,20.9949916 6.62355585,20.8649061 6.56462394,20.7348206 C6.58622115,20.7185809 6.60765093,20.7023411 6.62908072,20.6859339 Z M6.37091877,15.8379473 C6.31868367,15.3592929 6.57215785,15.081208 6.80169094,14.7919059 C6.75698975,15.1510222 6.7035827,15.5116453 6.37091877,15.8379473 Z M6.563452,20.0428729 C6.58940213,20.0432078 6.61535226,20.0435426 6.64146981,20.0438775 L6.64146981,20.3130891 C6.61535226,20.3125869 6.58940213,20.312252 6.563452,20.3119172 L6.563452,20.0428729 Z M7.74560601,11.2153082 C7.80236146,11.8091476 7.3111506,12.0671422 7.15595208,12.4893759 C7.00560874,12.898216 6.62104455,13.2208347 6.31081492,13.5650507 C6.60982739,12.7060176 6.88004359,11.8290706 7.74560601,11.2153082 Z M7.07107004,16.1550411 C6.96358627,15.8304134 7.23263053,15.6706945 7.30311443,15.4486953 C7.4454216,15.7423503 7.30529089,15.9387342 7.07107004,16.1550411 Z M7.41863437,18.4193993 C7.26494262,18.2057711 7.27431816,17.9070935 7.45379261,17.4148781 C7.50636255,17.2707293 7.58086454,17.157051 7.76351997,17.2395892 C7.7703842,17.770646 7.7538096,17.8268992 7.41863437,18.4193993 Z M7.98217075,21.7745 C8.04528816,21.9700468 8.10840558,22.1655936 8.17152299,22.3613078 C8.11543723,22.3683395 8.05951888,22.3753711 8.00343311,22.3824028 C7.96593099,22.1875257 7.92826145,21.9926486 7.8905919,21.7979389 C7.92106238,21.7900701 7.95170027,21.7823688 7.98217075,21.7745 Z M8.21940517,19.7383356 C8.0091254,19.5458024 8.08379481,19.3445633 8.10840558,19.1537043 C8.23497525,19.3134231 8.37493853,19.4704633 8.21940517,19.7383356 Z M8.08664095,13.0791973 C8.34229159,12.5372581 8.52996963,11.9635091 8.75782852,11.4078414 C8.81508623,11.2685478 8.91470125,11.1466659 9.05951972,10.9122776 C9.12598554,12.2102864 8.50016884,13.1526947 8.02921582,14.156044 C7.93010307,13.7907331 7.91352847,13.4460149 8.08664095,13.0791973 Z M10.192787,17.5725879 C10.2304566,17.5730902 10.2682935,17.573425 10.3059631,17.5737599 L10.3059631,17.8489987 C10.2766646,17.8513426 10.247366,17.853519 10.2179001,17.8558629 C10.2095291,17.7614379 10.201158,17.6670129 10.192787,17.5725879 Z M10.6664188,30.3891063 C10.4074197,29.9044248 9.93629929,29.5193584 9.94014995,28.7758453 C10.4462612,29.2797801 10.5572608,29.8339409 10.6664188,30.3891063 Z M10.4487725,9.04939311 C10.5401839,8.92215376 10.7275271,8.86405895 10.895617,8.75975617 C11.0642092,9.04654697 10.9686122,9.17897634 10.7518031,9.30738763 C10.5112202,9.4496948 10.2927369,9.62950409 10.0404347,9.81031791 C10.1758776,9.54981208 10.2836962,9.2789262 10.4487725,9.04939311 Z M11.1596387,33.3661722 C11.2209145,33.5068052 11.2831948,33.6491124 11.3722623,33.8531976 C11.1271592,33.7098859 11.158969,33.5305789 11.1596387,33.3661722 Z M11.4546331,20.6941375 C11.4799135,21.1034799 11.7683785,21.3768771 11.5164111,21.7006677 C11.1644939,21.3768771 11.1536115,21.2837914 11.4546331,20.6941375 Z M11.8087268,17.5474749 C11.8080571,17.5749318 11.7342248,17.6007145 11.6937091,17.6271669 C11.6577138,17.5518278 11.616361,17.4779955 11.5919176,17.3989732 C11.5884018,17.3879234 11.6675915,17.3512584 11.7553197,17.2983536 C11.7802653,17.4023216 11.8105684,17.4753168 11.8087268,17.5474749 Z M11.9445046,8.0388448 C11.7877993,8.57174329 11.643483,9.06261931 11.4991668,9.5533279 C11.2766654,8.50946297 11.3453077,8.27741858 11.9445046,8.0388448 Z M11.9687805,12.4731361 C11.8144191,12.1006262 11.8144191,12.1006262 12.024364,11.8918532 C12.0029342,12.115694 11.9868619,12.2839513 11.9687805,12.4731361 Z M12.1879335,18.1034774 C12.2316302,18.3857478 12.2714762,18.668688 12.3201955,18.9499539 C12.3751093,19.2662106 12.4169644,19.5868203 12.5038554,19.8945386 C12.58338,20.1766417 12.7206646,20.4431746 12.6473345,20.8429741 C12.264612,20.3942879 12.3168471,19.8637333 12.0829611,19.4709655 C11.8043739,19.0033609 12.1646621,18.5725888 12.0146536,18.1317714 C12.0724136,18.1223959 12.1301736,18.1128529 12.1879335,18.1034774 Z M12.5726651,8.99029378 C12.604475,9.25046477 12.6310948,9.46928296 12.6598911,9.70551286 C12.2962544,9.554165 12.2942453,9.53725556 12.5726651,8.99029378 Z M12.9009761,23.1883636 C12.5329865,23.0304864 12.2719785,22.7964329 12.2379922,22.5516646 C12.1966394,22.2534892 11.8892559,21.9270198 12.2493767,21.5397769 C12.6493436,22.0386891 12.6054795,22.629515 12.9009761,23.1883636 Z M12.9004739,13.1413101 C12.9254195,13.4808383 13.2118754,13.7833666 13.0757628,14.1285871 C12.8869128,13.8119955 12.8671573,13.4744763 12.9004739,13.1413101 Z M13.577856,10.1141856 C13.6896927,9.70618254 13.8006923,9.30085825 13.9116919,8.89570137 C13.9622528,8.89938461 14.0126463,8.90306786 14.0632072,8.9067511 C14.0632072,9.20392195 14.0858089,9.50343668 14.0556732,9.79742655 C14.0339086,10.0085434 13.9632573,10.2395833 13.577856,10.1141856 Z M13.575847,10.9228251 C14.0563429,10.9258387 14.0617004,10.9320332 14.0101349,11.4607462 C13.8433844,11.2541497 13.7271948,11.1105032 13.575847,10.9228251 Z M13.730041,16.6643334 C13.6968918,16.6683514 13.6637426,16.6723695 13.6305934,16.6763876 C13.6028016,16.5571844 13.5753447,16.4381487 13.534829,16.2636968 C13.6560412,16.3150948 13.7087786,16.3248052 13.7106202,16.3403753 C13.7231767,16.4476916 13.7248509,16.5561799 13.730041,16.6643334 Z M13.5808696,13.0301431 C13.4159607,12.5148238 13.2378256,12.0832145 13.4338746,11.6074063 C13.8770359,12.0383459 13.9101851,12.2819423 13.5808696,13.0301431 Z M14.1323517,7.13912866 C13.8072217,7.90608058 13.4832636,8.67068862 13.1591381,9.43512924 C13.1303418,9.43211568 13.1015455,9.42926954 13.0727493,9.42625597 C13.0146545,8.96099525 12.9357995,8.49690646 12.9038223,8.02980411 C12.8661527,7.47664778 13.5589375,6.97539171 14.1323517,7.13912866 Z M16.0802857,8.01322951 C15.9525441,7.66080999 15.8415445,7.35476587 15.7153097,7.00619702 C15.8552729,6.88866805 16.023028,6.92617017 16.2396697,7.03449104 C16.1881043,7.35175231 16.1377108,7.66047515 16.0802857,8.01322951 Z M16.1730365,19.2697265 C16.139385,19.2829527 16.1055661,19.2961789 16.0719147,19.3094051 C16.0017656,19.1326093 15.9314491,18.9558136 15.8276486,18.6941358 C16.1768871,18.8481624 16.1139371,19.0869036 16.1730365,19.2697265 Z M15.9558925,16.1598963 C15.8678295,15.8896801 15.7866307,15.67488 16.0779418,15.4433379 C16.1678464,15.6192965 16.2416788,15.7636127 16.342968,15.9618382 C16.1934617,16.0385167 16.0913354,16.0907518 15.9558925,16.1598963 Z M15.4316998,13.3718478 C15.4728852,13.3700061 15.5140706,13.3683319 15.5552559,13.3664903 C15.5753464,13.567562 15.587568,13.7698056 15.6183734,13.969203 C15.6434864,14.1316006 15.6056494,14.3119122 15.8828973,14.3530975 C16.0459645,14.3773735 16.0524939,14.5906668 15.9307794,14.7473721 C15.7298752,14.6243183 15.5731699,14.5285539 15.3553562,14.3952874 C15.3776231,14.0974469 15.4047452,13.7346473 15.4316998,13.3718478 Z M16.8050477,17.6998273 C16.9624227,17.9928126 17.1246529,18.2836215 17.2739917,18.5807924 C17.3123309,18.6569685 17.3417969,18.7636152 17.318358,18.8386195 C17.2863808,18.9414155 17.2003268,19.0274694 17.1373768,19.1207225 C17.0670603,19.0507408 16.9555585,18.9918089 16.933459,18.9091034 C16.8325046,18.5298966 16.7566633,18.1439931 16.6717812,17.7606008 C16.7161476,17.740343 16.7605139,17.7200851 16.8050477,17.6998273 Z M18.9237503,12.1028027 C18.9624244,12.3016979 19.000931,12.5004256 19.0394377,12.6991534 C18.9855284,12.7030041 18.9316191,12.7070222 18.8777098,12.7108728 L18.8139227,12.118875 C18.8505877,12.1135176 18.8872527,12.1081601 18.9237503,12.1028027 Z M19.5986211,12.9107725 C19.6295939,13.2364048 19.660734,13.5618697 19.6917068,13.8873345 C19.4594949,13.577942 19.4815944,13.2382464 19.4161331,12.9092658 C19.4769066,12.909768 19.5378476,12.9102703 19.5986211,12.9107725 Z M21.895124,23.9854512 C22.2743307,24.6385573 22.3957104,25.3514325 22.3739457,26.0976244 C22.026214,25.4373191 21.862477,24.7341543 21.895124,23.9854512 Z M22.0727568,31.0428821 C22.1047341,31.0299908 22.1367113,31.016932 22.1685212,31.0040407 C22.2098739,31.1031534 22.2510593,31.2022662 22.2922447,31.3013789 C22.2577561,31.3152748 22.2231001,31.3293381 22.1886116,31.3434014 C22.1499375,31.2432841 22.1114309,31.1429994 22.0727568,31.0428821 Z M21.7832873,28.7718272 C21.915047,29.3127618 22.0466393,29.8535291 22.203512,30.4975946 C21.6394733,30.1249172 21.4993426,29.5449736 21.7832873,28.7718272 Z M21.676808,22.1200553 C21.7526494,22.4838594 21.8286582,22.8476635 21.9044995,23.2114676 C21.8564499,23.2220151 21.8085677,23.2323951 21.7605181,23.2429426 C21.4958268,22.9248442 21.6083332,22.5181806 21.5472248,22.1523674 C21.5904192,22.1414851 21.6336136,22.1307702 21.676808,22.1200553 Z M21.4074289,7.85099934 C21.792328,7.53641679 21.8482463,7.55098235 21.9969155,8.06847818 C21.7452829,7.97555997 21.5885776,7.9178 21.4074289,7.85099934 Z M21.8323414,8.72995537 C21.8882597,9.0252846 21.9299474,9.24460506 21.9714676,9.46409294 C21.9332958,9.4853553 21.895124,9.50661767 21.8569522,9.52788003 C21.7096224,9.37552765 21.5622926,9.22334269 21.3891801,9.04420308 C21.5338312,8.94174192 21.6408127,8.86573315 21.8323414,8.72995537 Z M22.2180775,12.1039746 C21.7844592,11.4021491 21.6582244,10.9882864 21.6950568,10.5771024 C21.9624269,10.8002735 22.1727067,10.9929742 22.1169557,11.3844026 C22.0841414,11.6147728 22.1800731,11.8635592 22.2180775,12.1039746 Z M21.9846938,39.8856821 L21.9041647,40.1997624 C21.8767078,40.1997624 21.8490834,40.199595 21.8216265,40.199595 C21.8134229,40.1319572 21.7864683,40.0596317 21.8025406,39.9983559 C21.8167713,39.9439444 21.878382,39.9020893 21.9192325,39.854542 C21.9409971,39.864922 21.9627617,39.8753021 21.9846938,39.8856821 Z M21.9821825,33.6044112 C21.9080153,33.3249869 21.8340156,33.0453951 21.7600159,32.7658034 C21.7968483,32.7547537 21.8336808,32.7435365 21.8703458,32.7324868 C21.9584088,33.0067211 22.0464718,33.2809553 22.1345349,33.5551896 L21.9821825,33.6044112 Z M21.8698435,6.30788738 C22.0422863,6.55617153 22.2117156,6.80010276 22.409104,7.08421484 C21.8661603,7.26201509 21.7703959,7.21480259 21.3079813,6.58831621 C21.48394,6.50058803 21.6498534,6.41771503 21.8698435,6.30788738 Z M22.8378671,28.9948309 C22.571669,28.5471493 22.7200033,28.1401508 22.6237367,27.7915819 C22.7153155,28.1475173 23.0009344,28.4681269 22.8378671,28.9948309 Z M23.3846615,36.272252 C23.3556978,36.3810751 23.3267341,36.4898983 23.2977704,36.5988888 C23.259766,36.5906852 23.2217616,36.5824816 23.1837572,36.574278 C23.2001644,36.4634459 23.216739,36.3527811 23.2331462,36.241949 C23.2837071,36.2519942 23.334268,36.2620394 23.3846615,36.272252 Z M22.8482472,9.34003457 C23.1886124,9.59116487 23.3535213,9.9594893 23.5192673,10.3273115 C23.4794213,10.3433838 23.4399101,10.3592887 23.4000641,10.3753611 C23.1840921,10.0505659 22.9679526,9.72577071 22.7519805,9.40097552 C22.7839578,9.38071768 22.8161025,9.36029242 22.8482472,9.34003457 Z M25.3476633,8.55315965 C25.0905059,8.07802113 24.786973,7.62330787 24.6530369,7.09375779 C25.2400121,7.42357558 25.1532884,8.05022937 25.3476633,8.55315965 Z M25.0627141,6.11920482 C24.8008689,6.18650774 24.8008689,6.18650774 24.6838422,5.87510617 C24.8065612,5.95429593 24.9294476,6.03331826 25.0627141,6.11920482 Z M25.9600864,21.352936 C25.9955794,21.3859178 26.0451358,21.4130398 26.0627149,21.4537229 C26.0804615,21.4950757 26.0665656,21.5499896 26.0665656,21.6922967 C25.993403,21.5369308 25.9585796,21.462931 25.9237562,21.3890987 C25.9358104,21.3770445 25.9478647,21.3649902 25.9600864,21.352936 Z M26.2477143,22.4349727 C26.2529043,22.7068631 26.558781,22.9502921 26.2867232,23.2879786 C26.0774479,22.9959978 26.1817507,22.7137273 26.2477143,22.4349727 Z M26.306981,12.7088638 C26.3166914,12.8369402 26.3265692,12.9650167 26.3362795,13.0930931 C26.3066462,13.0957719 26.2770128,13.098618 26.2475468,13.1012967 C26.2287958,12.9651841 26.2102121,12.8292389 26.1914611,12.6932937 C26.2299677,12.6984837 26.2684744,12.7036738 26.306981,12.7088638 Z M40.1176405,19.6636662 C40.0605502,19.3161019 40.0642334,18.9588272 40.0181929,18.6090864 C39.9478764,18.0745137 39.8953065,17.5337464 39.7689042,17.0115628 C39.570009,16.1891948 39.3351185,15.3740259 39.0793004,14.567228 C38.8849256,13.9546375 38.7319035,13.3181059 38.2361723,12.838447 C38.1275166,12.7333071 38.0888425,12.5553395 38.0377794,12.390598 C37.563478,11.7266095 37.1067557,11.0515712 36.7151598,10.3325015 C36.6438388,10.2725651 36.5718481,10.2134657 36.5015317,10.1521899 C36.11161,9.81282921 35.8002084,9.38356382 35.4114587,9.04236146 C34.6950677,8.4135312 34.1194771,7.63285082 33.3053127,7.10932787 C33.1265079,6.99414277 33.0029518,6.77398521 32.8151063,6.69546514 C32.1117741,6.40164269 31.4831112,5.94240909 30.7133132,5.78838251 C30.4646942,5.73865871 30.249057,5.64205726 29.9882163,5.74451842 C29.8710222,5.79055897 29.7029323,5.77147307 29.5800459,5.72442799 C29.3627344,5.64105274 29.154966,5.52570022 28.9560708,5.40298122 C27.9637713,4.7910604 26.8392098,4.6087398 25.7206755,4.44081734 C25.1020578,4.34789913 24.4636846,4.39377227 23.8368634,4.34471815 C23.0300655,4.28160074 22.2262811,4.1826554 21.4203203,4.10832083 C21.301452,4.09743852 21.1494344,4.09693626 21.061204,4.15955141 C20.5227806,4.54193914 19.8802219,4.47011588 19.2832015,4.590491 C19.1127677,4.62497956 18.9314516,4.60087105 18.7576695,4.62397504 C17.9182246,4.73564431 17.0797843,4.85484749 16.2408417,4.96986517 C15.4142881,5.08320864 14.6401371,5.37167364 13.8922711,5.71990765 C13.304124,5.99397451 12.7163117,6.23723606 12.0678932,6.28612276 C11.825134,5.86104288 11.6978946,5.81182134 11.3225385,6.09425921 C11.0411052,6.30587834 10.7558212,6.54729826 10.564125,6.83626552 C10.2105336,7.36949885 9.69153096,7.54093713 9.12180003,7.69295467 C8.59978386,7.83208086 8.00075439,7.88783178 7.7745697,8.5278792 C7.75280508,8.58932241 7.6717737,8.62766163 7.62723993,8.6837474 C7.44090125,8.9191402 7.2465264,9.14917555 7.07709716,9.39612034 C6.88573588,9.67520981 6.74309387,9.9901272 6.53482314,10.2544837 C6.04830005,10.8727665 5.53281327,11.4681127 5.03356624,12.0765177 C4.64799752,12.5466336 4.24736099,13.0067043 3.89443922,13.5007613 C3.60547196,13.9052485 3.37744565,14.3529301 3.10170458,14.8160144 C3.38481214,15.1028052 3.28402518,15.4163832 3.07541961,15.7443594 C2.78661977,16.1987378 2.51138097,16.6623243 2.24853126,17.131938 C2.17335959,17.2663764 2.14975334,17.433964 2.12246385,17.5898322 C2.07039617,17.8880076 2.08864497,18.2111286 1.97898474,18.4843583 C1.53699542,19.5876574 1.40188732,20.7485491 1.27531765,21.9124543 C1.22475675,22.3767105 1.22124093,22.8464916 1.16431806,23.3097432 C1.09450384,23.8794742 1.02854028,24.4542277 0.8919254,25.0097279 C0.746604669,25.6003864 0.956549596,26.1622486 0.947006645,26.7403505 C0.941481778,27.0782045 0.847893888,27.4721442 1.16147192,27.7580979 C0.998069805,28.0905944 1.17503295,28.4004892 1.23731327,28.7130627 C1.36405036,29.3494269 1.53582348,29.9734019 1.88924751,30.5304089 C2.01112942,30.7222725 2.20466717,30.9059324 2.23162182,31.1110222 C2.26276197,31.3480892 2.31365771,31.5176858 2.51456195,31.6445903 C2.54402791,31.663174 2.55139439,31.7457121 2.54168402,31.7930921 C2.46316395,32.1801675 2.7412489,32.4053477 2.93394954,32.6681974 C2.9650897,32.7107222 3.05616629,32.7401881 3.05398983,32.7711608 C3.02469129,33.2044443 3.29474007,33.5238821 3.52762156,33.8131842 C4.07692723,34.4960911 4.69152677,35.1260933 5.27013098,35.7860638 C5.40858748,35.9441084 5.51958707,36.1291077 5.62522921,36.3122654 C5.89678477,36.783051 6.19562983,37.2143255 6.65184986,37.5458174 C7.04059956,37.8282553 7.47689659,37.9807751 7.89645161,38.1843581 C8.57701471,38.5145107 9.22560055,38.9189979 9.9239102,39.2026077 C11.0407703,39.6563165 12.1859245,40.0405458 13.3225402,40.4443633 C13.5423629,40.5223811 13.7757467,40.579304 14.0072888,40.6045844 C14.6853406,40.6782493 15.3593743,40.7455523 15.9959059,41.0291621 C16.1335253,41.0904379 16.3978818,41.0815646 16.4886235,40.990488 C16.6972291,40.7805431 16.9292735,40.7788689 17.1812409,40.7671495 C17.6493478,40.74505 18.1177895,40.7234528 18.584557,40.6832719 C18.7692215,40.6671996 18.9120309,40.7058737 18.9935645,40.8702803 C19.0884918,41.061809 19.2030072,41.2563513 19.2390025,41.4619433 C19.3071426,41.8498559 19.358708,42.2466417 19.357536,42.6395769 C19.3550247,43.5208769 19.3193642,44.4021768 19.2910702,45.2831419 C19.2619391,46.188048 19.158306,47.0795606 18.7489636,47.939933 C18.8619723,48.0695162 18.9749809,48.1992669 19.1353694,48.3832616 C20.3633966,47.5155228 21.5653062,46.6663675 22.8050527,45.7904251 C23.3707656,45.9267051 23.4081003,45.9072844 23.518765,45.3306892 C23.5644708,45.0924503 23.6180452,44.8746366 23.8572887,44.7487366 C23.9324604,44.7092254 23.9982565,44.6348909 24.0456364,44.5618956 C24.4360603,43.9583458 24.8283258,43.3558005 25.204519,42.7433775 C25.3551972,42.4982743 25.4586629,42.2247097 25.6008026,41.9737468 C25.6599019,41.869444 25.7482998,41.741535 25.8504261,41.7087206 C26.3453202,41.549504 26.8422234,41.378568 27.3518505,41.2864869 C28.5807147,41.0644877 29.6697831,40.5396254 30.6922182,39.8493519 C30.8984799,39.7100583 31.10809,39.5751177 31.3061481,39.4249417 C31.7928386,39.0559476 32.2582668,38.6568179 32.7608622,38.3115974 C33.3141859,37.9318884 33.8132655,37.5044647 34.2689833,37.0100728 C35.1157947,36.0912708 35.891285,35.100478 36.4461156,34.0013645 C36.8763855,33.1491956 37.4648675,32.4043432 37.8755492,31.5451427 C38.1670278,30.9355658 38.5171034,30.3464141 38.7668943,29.7197603 C39.2460509,28.5176833 39.5422173,27.2611947 39.8261619,25.9963351 C40.0543557,24.9800945 40.1017356,23.9598359 40.0938668,22.9447672 C40.0853284,21.8506762 40.297952,20.7587617 40.1176405,19.6636662 Z"/>
    <text fill="#716555" font-family="OpenSans, Open Sans" font-size="45">
      <tspan x="13.033" y="48.979">“</tspan>
    </text>
  </g>
</svg>
